Material name, 380, 390, 400, 410, 420, 430, 440, 450, 460, 470, 480, 490, 500, 510, 520, 530, 540, 550, 560, 570, 580, 590, 600, 610, 620, 630, 640, 650, 660, 670, 680, 690, 700, 710, 720, 730, 740, 750, 760, 770, 780
IXCAXORA, 0.562715, 0.0, 0.112369, 0.0991517, 0.086263, 0.0792186, 0.0880302, 0.0941582, 0.107254, 0.141936, 0.1772, 0.17623, 0.153159, 0.127263, 0.0887765, 0.0646761, 0.0672133, 0.0964189, 0.135227, 0.185841, 0.300197, 0.506648, 0.70133, 0.798135, 0.827453, 0.836375, 0.837944, 0.844635, 0.84486, 0.844443, 0.846232, 0.848971, 0.84986, 0.853284, 0.849872, 0.856305, 0.858548, 0.858003, 0.865165, 0.857097, 0.862764
IXAXOR2, 0.213356, 0.174494, 0.145319, 0.121847, 0.112788, 0.105068, 0.109889, 0.118708, 0.13558, 0.172097, 0.211832, 0.213255, 0.188109, 0.160979, 0.112734, 0.0873957, 0.0844219, 0.123567, 0.165485, 0.221918, 0.351797, 0.562958, 0.739588, 0.816559, 0.841598, 0.849689, 0.844942, 0.853873, 0.852434, 0.853416, 0.852602, 0.855999, 0.855404, 0.863949, 0.847101, 0.863715, 0.861894, 0.858393, 0.869827, 0.841214, 0.864404
HERPIOYE, 0.0411856, 0.0334449, 0.0338466, 0.0319405, 0.0316282, 0.0263653, 0.0312222, 0.0314708, 0.0325361, 0.0407405, 0.0518931, 0.0560401, 0.0478281, 0.0408556, 0.0344152, 0.0319895, 0.0349689, 0.0586709, 0.141549, 0.390535, 0.665571, 0.820045, 0.881303, 0.900901, 0.911193, 0.916409, 0.919844, 0.924981, 0.930895, 0.931913, 0.93401, 0.937131, 0.936203, 0.944257, 0.938679, 0.946256, 0.948629, 0.948264, 0.954012, 0.947636, 0.95022
HERPIORE, 0.0556164, 0.046218, 0.042827, 0.0408159, 0.0373238, 0.0364455, 0.0391944, 0.0430587, 0.0430358, 0.0558456, 0.0600448, 0.0564733, 0.044301, 0.0370682, 0.0299429, 0.0302796, 0.0302782, 0.0302302, 0.0304784, 0.0377112, 0.0586181, 0.135168, 0.369401, 0.665101, 0.818339, 0.871282, 0.884305, 0.894633, 0.900339, 0.903529, 0.9041, 0.907537, 0.904395, 0.912392, 0.904055, 0.91438, 0.914673, 0.914259, 0.920068, 0.911437, 0.915629
HERPIORA, 0.0430503, 0.0390615, 0.0370174, 0.0378175, 0.0343011, 0.0277633, 0.0351587, 0.0357186, 0.0357024, 0.0448127, 0.0552291, 0.0665187, 0.0637442, 0.0530696, 0.0355854, 0.0336044, 0.0337974, 0.0404898, 0.0499501, 0.0968831, 0.225766, 0.473608, 0.723782, 0.8426, 0.880638, 0.895163, 0.898166, 0.906015, 0.910893, 0.912626, 0.912325, 0.91595, 0.916084, 0.920631, 0.917265, 0.923923, 0.926415, 0.925425, 0.930847, 0.924038, 0.929835
HERPICER, 0.0902205, 0.0908112, 0.101662, 0.1173, 0.14713, 0.167079, 0.190512, 0.184836, 0.152704, 0.115391, 0.0762329, 0.0505101, 0.0353374, 0.0275392, 0.0236864, 0.026178, 0.0244356, 0.0262261, 0.0254632, 0.0329837, 0.05605, 0.153479, 0.421068, 0.710296, 0.852857, 0.899332, 0.913106, 0.925654, 0.927698, 0.932477, 0.935498, 0.939204, 0.941598, 0.944749, 0.942431, 0.949229, 0.95181, 0.953114, 0.957701, 0.952772, 0.955144
HERPIPIN, 0.19997, 0.202777, 0.202959, 0.214107, 0.240493, 0.280692, 0.365751, 0.405121, 0.343804, 0.259756, 0.171909, 0.117016, 0.0771246, 0.0520454, 0.0406752, 0.038523, 0.0309925, 0.03028, 0.0277775, 0.0381847, 0.0633159, 0.14353, 0.373678, 0.676622, 0.843223, 0.899955, 0.91401, 0.926015, 0.933023, 0.937775, 0.939496, 0.942446, 0.944366, 0.949715, 0.94672, 0.954621, 0.956639, 0.958356, 0.961852, 0.95554, 0.962375
HERPIRED, 0.0692383, 0.0636262, 0.0607787, 0.0588517, 0.0596349, 0.058629, 0.0654427, 0.0720383, 0.0712984, 0.0712834, 0.0583557, 0.0438738, 0.0361247, 0.0306874, 0.0280815, 0.0265462, 0.0255677, 0.028287, 0.0244228, 0.0338627, 0.0474314, 0.0945859, 0.278055, 0.586952, 0.784498, 0.856836, 0.87796, 0.890854, 0.898382, 0.89977, 0.901871, 0.90417, 0.906309, 0.909169, 0.90577, 0.914117, 0.914751, 0.914073, 0.918359, 0.912301, 0.915464
POLYORAN, 0.115502, 0.0975843, 0.0740355, 0.0607324, 0.051874, 0.0427223, 0.0438552, 0.0436491, 0.0420298, 0.043932, 0.0490028, 0.059577, 0.0580652, 0.0552533, 0.0463584, 0.0417573, 0.0405892, 0.0439956, 0.0501479, 0.0660175, 0.105552, 0.198148, 0.335554, 0.470128, 0.543347, 0.573141, 0.582037, 0.589609, 0.587533, 0.579798, 0.583695, 0.594372, 0.595064, 0.607851, 0.593262, 0.613876, 0.60708, 0.612758, 0.638554, 0.585321, 0.65353
GOLFYE, 0.313414, 0.330292, 0.335773, 0.36803, 0.373361, 0.352791, 0.343297, 0.334057, 0.328179, 0.334427, 0.334782, 0.37098, 0.470858, 0.653262, 0.843527, 0.94983, 1.0041, 1.01475, 1.01179, 1.00451, 0.915901, 0.911108, 0.904936, 0.902908, 0.899289, 0.896809, 0.886676, 0.886391, 0.878131, 0.8716, 0.863069, 0.860234, 0.851935, 0.845814, 0.837143, 0.833778, 0.828279, 0.819586, 0.803581, 0.81264, 0.815493
IXCAXPRE, 0.270299, 0.230644, 0.196638, 0.172148, 0.154312, 0.142574, 0.145122, 0.158832, 0.169582, 0.188827, 0.197081, 0.170585, 0.140834, 0.107422, 0.0747497, 0.0619257, 0.0603288, 0.0689369, 0.066302, 0.0774436, 0.125965, 0.264546, 0.509388, 0.717056, 0.805916, 0.83391, 0.837685, 0.845887, 0.849829, 0.8511, 0.851062, 0.854899, 0.854617, 0.858244, 0.855192, 0.861906, 0.863747, 0.863843, 0.868454, 0.864311, 0.86834
IXCCLYE, 0.273952, 0.226232, 0.171505, 0.131016, 0.103994, 0.0763686, 0.0689354, 0.0678359, 0.0630569, 0.0687973, 0.090432, 0.166783, 0.35979, 0.613486, 0.753631, 0.793416, 0.809291, 0.819263, 0.822136, 0.820835, 0.82829, 0.830801, 0.834654, 0.836187, 0.836206, 0.83813, 0.837962, 0.842178, 0.844729, 0.846406, 0.845978, 0.848773, 0.848652, 0.852489, 0.849272, 0.855759, 0.857333, 0.859201, 0.864843, 0.858222, 0.863387
HERPIMAG, 0.141101, 0.142693, 0.142121, 0.150535, 0.166535, 0.190921, 0.244456, 0.251603, 0.190051, 0.131981, 0.0849745, 0.0614137, 0.0406289, 0.0333807, 0.0276412, 0.027064, 0.024535, 0.0282489, 0.02382, 0.031185, 0.0477115, 0.0939341, 0.246816, 0.541993, 0.771048, 0.863861, 0.89331, 0.906806, 0.91608, 0.920832, 0.922225, 0.926417, 0.928594, 0.931092, 0.928886, 0.936573, 0.937903, 0.938417, 0.941462, 0.937681, 0.942168
HERPICHA, 0.0495748, 0.0403523, 0.0371791, 0.0343606, 0.0327208, 0.0288836, 0.0374454, 0.0368592, 0.038718, 0.0512161, 0.091973, 0.199179, 0.410119, 0.613168, 0.705153, 0.726937, 0.759992, 0.802612, 0.832603, 0.848646, 0.865347, 0.871408, 0.88032, 0.886672, 0.888232, 0.893932, 0.896547, 0.901488, 0.901285, 0.904826, 0.904724, 0.906762, 0.908414, 0.910182, 0.906256, 0.914409, 0.916464, 0.91421, 0.921062, 0.913344, 0.916992
TEXTYELL, 0.133453, 0.0892315, 0.0582752, 0.0402483, 0.0294051, 0.026158, 0.0270736, 0.0268621, 0.0372696, 0.061989, 0.133888, 0.273394, 0.458662, 0.618566, 0.680491, 0.705117, 0.713143, 0.718986, 0.725466, 0.722631, 0.721719, 0.728651, 0.723341, 0.728246, 0.733122, 0.738135, 0.73641, 0.737601, 0.736304, 0.735201, 0.734756, 0.736842, 0.735035, 0.749748, 0.728387, 0.752529, 0.743665, 0.750925, 0.775458, 0.707983, 0.792706
IXCRLALE, 0.180566, 0.159649, 0.152747, 0.139604, 0.111774, 0.0824342, 0.0682253, 0.0648536, 0.0548785, 0.0560791, 0.0651258, 0.0710667, 0.0692795, 0.0927487, 0.194694, 0.41862, 0.636392, 0.736935, 0.763738, 0.774769, 0.788046, 0.787944, 0.793922, 0.800279, 0.802756, 0.80628, 0.806215, 0.812564, 0.813707, 0.816262, 0.818632, 0.820498, 0.821404, 0.825409, 0.82426, 0.82809, 0.828425, 0.829293, 0.834442, 0.829203, 0.834033
POLYYELL, 0.12068, 0.117361, 0.0989984, 0.0797253, 0.0647621, 0.0554006, 0.0526621, 0.0494104, 0.0483247, 0.0515252, 0.069758, 0.123333, 0.227755, 0.357866, 0.406484, 0.395575, 0.402861, 0.452685, 0.525276, 0.574531, 0.607841, 0.628244, 0.635143, 0.648502, 0.659185, 0.665817, 0.667511, 0.670146, 0.667852, 0.665288, 0.667233, 0.674533, 0.674081, 0.688044, 0.669788, 0.692273, 0.682982, 0.688507, 0.716885, 0.652611, 0.732025
IXCSSTHL, 0.129049, 0.110783, 0.101889, 0.0926616, 0.0750066, 0.0537503, 0.048468, 0.0471389, 0.0411235, 0.0483866, 0.0622276, 0.104623, 0.209101, 0.410345, 0.631378, 0.739251, 0.77143, 0.784264, 0.791922, 0.791458, 0.798605, 0.800827, 0.802978, 0.805078, 0.807823, 0.813094, 0.811926, 0.817854, 0.820307, 0.821525, 0.822353, 0.823789, 0.8236, 0.828986, 0.826937, 0.831854, 0.833421, 0.834182, 0.838927, 0.834166, 0.837474
IXCRHTP, 0.341079, 0.379118, 0.405775, 0.436862, 0.467036, 0.519927, 0.593881, 0.620212, 0.581446, 0.50937, 0.413832, 0.334995, 0.248603, 0.17538, 0.140457, 0.120491, 0.0950404, 0.0767326, 0.0766258, 0.109504, 0.2139, 0.422382, 0.645467, 0.753101, 0.78881, 0.797479, 0.802156, 0.806817, 0.810777, 0.813073, 0.813388, 0.817001, 0.817096, 0.820834, 0.817268, 0.821842, 0.823115, 0.825409, 0.828592, 0.825743, 0.827499
PHP8HPWH, 0.0490418, 0.0826103, 0.108937, 0.270864, 0.6121, 0.75109, 0.779896, 0.785995, 0.784511, 0.782405, 0.783461, 0.784298, 0.782393, 0.779912, 0.778704, 0.778246, 0.778772, 0.776032, 0.772236, 0.768089, 0.775196, 0.771082, 0.77199, 0.767947, 0.7633, 0.762546, 0.759326, 0.757735, 0.75502, 0.753271, 0.749566, 0.746842, 0.745516, 0.745041, 0.737276, 0.74031, 0.737479, 0.734167, 0.73633, 0.732196, 0.730408
CIBA12, 0.0764103, 0.106772, 0.171001, 0.333703, 0.598251, 0.750727, 0.800155, 0.815163, 0.81721, 0.824462, 0.82662, 0.836858, 0.836302, 0.839553, 0.844713, 0.843973, 0.850059, 0.852434, 0.852993, 0.847633, 0.864434, 0.85912, 0.861334, 0.865451, 0.864522, 0.862069, 0.850463, 0.827005, 0.777553, 0.708717, 0.714663, 0.691773, 0.65666, 0.643371, 0.62092, 0.61788, 0.667101, 0.738879, 0.80209, 0.827301, 0.847186
IXCATAN, 0.42716, 0.434031, 0.428131, 0.419396, 0.40793, 0.37532, 0.363005, 0.362246, 0.368882, 0.395727, 0.459073, 0.548775, 0.602819, 0.600949, 0.5593, 0.522892, 0.537297, 0.603669, 0.672005, 0.724743, 0.776415, 0.801249, 0.814067, 0.817781, 0.818464, 0.821127, 0.820205, 0.822721, 0.826275, 0.826253, 0.826557, 0.827876, 0.828635, 0.832608, 0.828068, 0.834378, 0.835274, 0.834723, 0.839035, 0.835082, 0.835169
IXCCLGE, 0.121363, 0.11959, 0.11293, 0.0953523, 0.0810214, 0.061881, 0.0567363, 0.0556924, 0.0496353, 0.0557631, 0.0865282, 0.177835, 0.369221, 0.567571, 0.628902, 0.602972, 0.554042, 0.491023, 0.413559, 0.343231, 0.282044, 0.216672, 0.165194, 0.135133, 0.120309, 0.117748, 0.113138, 0.11298, 0.118594, 0.129479, 0.144265, 0.161998, 0.176254, 0.188307, 0.190435, 0.200986, 0.225108, 0.263372, 0.307882, 0.325235, 0.344919
ARTFPINK, 0.67145, 0.717173, 0.736495, 0.739373, 0.732254, 0.711614, 0.675534, 0.629306, 0.57657, 0.515548, 0.460137, 0.403414, 0.358167, 0.313636, 0.284462, 0.262666, 0.248923, 0.243088, 0.251198, 0.280987, 0.360106, 0.493501, 0.650565, 0.788013, 0.868429, 0.908018, 0.924989, 0.931913, 0.93708, 0.93984, 0.942963, 0.942972, 0.945485, 0.946338, 0.944112, 0.94675, 0.946269, 0.948812, 0.947316, 0.944986, 0.948645
TEXTORAB, 0.191115, 0.17803, 0.158499, 0.136592, 0.114866, 0.0875752, 0.0739131, 0.0606099, 0.0461082, 0.0426227, 0.0376283, 0.0385171, 0.0360267, 0.0360763, 0.0426956, 0.0499659, 0.0660384, 0.0993909, 0.150269, 0.228967, 0.314438, 0.398389, 0.459221, 0.492398, 0.505504, 0.513032, 0.512498, 0.514705, 0.514746, 0.512886, 0.51109, 0.511775, 0.508261, 0.508724, 0.506302, 0.505709, 0.505409, 0.505516, 0.503557, 0.506184, 0.506566
HERPIGRE, 0.037354, 0.0352812, 0.0327866, 0.0369765, 0.0321787, 0.0281285, 0.0297911, 0.0330458, 0.0328802, 0.0475193, 0.0901811, 0.204528, 0.389484, 0.548027, 0.613964, 0.608954, 0.567639, 0.496299, 0.409479, 0.319525, 0.239702, 0.164633, 0.111315, 0.0836991, 0.0744476, 0.0712983, 0.0688848, 0.0694107, 0.0764584, 0.0916018, 0.113911, 0.135206, 0.147132, 0.151912, 0.145485, 0.150539, 0.172919, 0.214059, 0.25573, 0.269724, 0.280329
PEPWH, 0.166913, 0.222915, 0.319352, 0.534952, 0.721305, 0.759511, 0.77464, 0.782741, 0.775848, 0.782172, 0.776921, 0.779661, 0.774169, 0.771383, 0.765694, 0.760218, 0.759279, 0.759998, 0.753632, 0.747664, 0.754159, 0.758696, 0.760966, 0.761063, 0.760031, 0.763399, 0.765714, 0.774643, 0.77779, 0.77763, 0.778084, 0.778475, 0.779209, 0.782298, 0.77976, 0.78606, 0.78711, 0.787661, 0.792147, 0.790322, 0.78776
CIBA11, 0.155523, 0.212407, 0.295811, 0.470617, 0.689232, 0.789131, 0.814669, 0.823945, 0.821924, 0.824777, 0.824886, 0.83245, 0.833637, 0.833291, 0.838302, 0.838475, 0.839435, 0.843016, 0.841435, 0.841575, 0.855577, 0.851221, 0.852203, 0.855842, 0.855959, 0.854073, 0.840362, 0.818058, 0.769089, 0.704372, 0.70997, 0.687528, 0.65022, 0.63797, 0.616997, 0.61271, 0.6618, 0.732234, 0.791836, 0.813327, 0.832677
PHP8RVWH, 0.285549, 0.346784, 0.421115, 0.62896, 0.784622, 0.810719, 0.817842, 0.822712, 0.820716, 0.824824, 0.822338, 0.825891, 0.826386, 0.828445, 0.826555, 0.826925, 0.826291, 0.824913, 0.82527, 0.821235, 0.824571, 0.821822, 0.824008, 0.820542, 0.818874, 0.823975, 0.820342, 0.823431, 0.821217, 0.821356, 0.81974, 0.821941, 0.822856, 0.825011, 0.821428, 0.825613, 0.826336, 0.825848, 0.82888, 0.822387, 0.824584
IXCRUMY, 0.428186, 0.442623, 0.435758, 0.438078, 0.427903, 0.398123, 0.386387, 0.388896, 0.392144, 0.424151, 0.494743, 0.605821, 0.692415, 0.72856, 0.72038, 0.710012, 0.721755, 0.752831, 0.777096, 0.788911, 0.807996, 0.813727, 0.818419, 0.821213, 0.822289, 0.822567, 0.82147, 0.82594, 0.829585, 0.829615, 0.829345, 0.831458, 0.831498, 0.834934, 0.831782, 0.83811, 0.838434, 0.836499, 0.842642, 0.839208, 0.839987
GOLFORA, 0.184494, 0.201114, 0.21498, 0.214739, 0.210288, 0.197685, 0.197972, 0.199874, 0.194411, 0.199428, 0.201234, 0.19963, 0.196889, 0.194324, 0.188421, 0.189682, 0.190001, 0.197698, 0.202427, 0.225519, 0.250092, 0.358833, 0.510188, 0.634206, 0.700722, 0.730546, 0.737314, 0.746581, 0.742813, 0.718803, 0.733399, 0.756842, 0.760472, 0.763706, 0.762431, 0.763372, 0.762353, 0.764048, 0.7516, 0.762002, 0.769339
PXEROWHR, 0.284928, 0.346396, 0.419889, 0.623722, 0.780383, 0.804856, 0.812883, 0.822317, 0.814997, 0.826299, 0.823343, 0.828968, 0.826684, 0.826922, 0.828202, 0.825209, 0.826516, 0.829603, 0.822604, 0.821975, 0.825307, 0.819928, 0.821555, 0.824434, 0.823138, 0.824325, 0.82176, 0.824428, 0.82359, 0.820852, 0.821312, 0.821458, 0.823785, 0.825499, 0.823921, 0.826229, 0.825284, 0.827297, 0.828253, 0.826204, 0.827383
TEXTMAGC, 0.346946, 0.384873, 0.399952, 0.39623, 0.37067, 0.320709, 0.270386, 0.216661, 0.157849, 0.119879, 0.0850136, 0.0631558, 0.0461545, 0.0343716, 0.0286687, 0.0249272, 0.023864, 0.0232249, 0.0204075, 0.0236692, 0.0328664, 0.0558854, 0.117901, 0.239188, 0.382409, 0.477815, 0.514865, 0.526245, 0.530383, 0.53267, 0.532933, 0.53516, 0.532495, 0.533864, 0.532526, 0.53306, 0.533842, 0.534688, 0.53596, 0.536765, 0.533605
IXCSHPIN, 0.564615, 0.592484, 0.612787, 0.647282, 0.673157, 0.690162, 0.705637, 0.69774, 0.666172, 0.624403, 0.561878, 0.495993, 0.444701, 0.394016, 0.345519, 0.320033, 0.324403, 0.345989, 0.366306, 0.422069, 0.545545, 0.684732, 0.774045, 0.806514, 0.814837, 0.820032, 0.819882, 0.822868, 0.825114, 0.828345, 0.827736, 0.82764, 0.829463, 0.832564, 0.829379, 0.835742, 0.835454, 0.834638, 0.84083, 0.835359, 0.84061
PHP8HP5Y, 0.0458074, 0.070575, 0.0946605, 0.211844, 0.423314, 0.498734, 0.511673, 0.519998, 0.515118, 0.523929, 0.537801, 0.55702, 0.593741, 0.660433, 0.719334, 0.750174, 0.762214, 0.766641, 0.760124, 0.754943, 0.762759, 0.765039, 0.769787, 0.773537, 0.773449, 0.774442, 0.770063, 0.768323, 0.768313, 0.763978, 0.761128, 0.757994, 0.75437, 0.755411, 0.748338, 0.749852, 0.748559, 0.744597, 0.744889, 0.73991, 0.7373
TEXTBLUE, 0.0723584, 0.0817486, 0.125154, 0.217039, 0.318536, 0.359979, 0.367219, 0.377345, 0.39441, 0.414238, 0.423227, 0.433767, 0.429873, 0.407778, 0.369692, 0.324461, 0.273886, 0.227172, 0.186606, 0.152007, 0.118274, 0.0899362, 0.0743271, 0.0696601, 0.065257, 0.0543252, 0.0442165, 0.0384314, 0.0420915, 0.068907, 0.142368, 0.254662, 0.365721, 0.444834, 0.480617, 0.498746, 0.506674, 0.511183, 0.516403, 0.51636, 0.517656
TEXTMAGU, 0.332055, 0.364928, 0.380896, 0.379881, 0.355585, 0.311996, 0.264426, 0.210163, 0.154566, 0.118444, 0.0858171, 0.0601874, 0.0468501, 0.0316038, 0.0279569, 0.0241168, 0.0228031, 0.0234324, 0.0190006, 0.0244085, 0.0320163, 0.0540327, 0.116032, 0.23275, 0.365942, 0.453517, 0.488328, 0.498627, 0.50205, 0.503474, 0.503051, 0.505453, 0.503885, 0.506633, 0.504278, 0.504774, 0.504985, 0.505061, 0.505497, 0.504637, 0.506433
PAPRED, 0.493274, 0.472602, 0.432139, 0.387903, 0.350678, 0.311379, 0.286897, 0.259942, 0.227899, 0.206416, 0.178422, 0.152815, 0.129222, 0.114443, 0.102283, 0.101169, 0.098619, 0.105361, 0.116824, 0.164808, 0.249934, 0.386513, 0.532067, 0.625947, 0.664043, 0.675848, 0.679095, 0.685702, 0.685156, 0.684657, 0.684036, 0.68437, 0.684227, 0.687546, 0.684103, 0.687756, 0.686806, 0.687353, 0.692293, 0.684688, 0.690721
ARTFYELLOW, 0.251802, 0.237902, 0.198483, 0.164998, 0.136079, 0.117879, 0.11022, 0.103342, 0.108618, 0.128719, 0.180956, 0.283659, 0.451972, 0.626861, 0.74439, 0.797878, 0.815382, 0.832425, 0.847905, 0.865282, 0.875036, 0.88359, 0.888921, 0.895147, 0.897296, 0.905015, 0.910574, 0.91584, 0.921174, 0.920152, 0.922864, 0.924012, 0.927151, 0.93018, 0.931631, 0.937673, 0.939735, 0.944006, 0.944611, 0.944389, 0.949699
PHP8HP5M, 0.042671, 0.0694806, 0.0876155, 0.204736, 0.417849, 0.495905, 0.525862, 0.532153, 0.513911, 0.50297, 0.481688, 0.474378, 0.471928, 0.47247, 0.473968, 0.472378, 0.474936, 0.467309, 0.449946, 0.447883, 0.475852, 0.525379, 0.614413, 0.694001, 0.735369, 0.754091, 0.757693, 0.759286, 0.760764, 0.758827, 0.757007, 0.753124, 0.751063, 0.748421, 0.744791, 0.745398, 0.744262, 0.73868, 0.741442, 0.732114, 0.731154
PAPMAG, 0.601539, 0.615103, 0.621187, 0.619744, 0.609735, 0.588188, 0.564553, 0.522828, 0.468825, 0.422783, 0.370298, 0.324928, 0.280672, 0.244482, 0.221036, 0.203145, 0.194807, 0.190961, 0.196849, 0.231332, 0.300056, 0.408598, 0.537079, 0.619471, 0.65387, 0.666777, 0.666738, 0.67113, 0.670776, 0.670811, 0.671306, 0.668848, 0.669474, 0.671207, 0.666979, 0.671003, 0.6716, 0.670137, 0.674188, 0.668774, 0.672877
PAPORAN, 0.280219, 0.22477, 0.182025, 0.149754, 0.129255, 0.118016, 0.11821, 0.124243, 0.131215, 0.166, 0.215795, 0.255758, 0.260498, 0.245628, 0.231124, 0.224069, 0.220978, 0.228611, 0.260184, 0.338256, 0.451453, 0.572919, 0.660348, 0.699711, 0.710924, 0.717491, 0.717526, 0.719755, 0.72125, 0.721431, 0.7202, 0.718474, 0.720034, 0.720957, 0.717967, 0.721787, 0.723313, 0.721366, 0.72575, 0.718951, 0.724653
IXCELLIM, 0.419941, 0.433864, 0.433806, 0.434729, 0.431033, 0.409493, 0.403137, 0.407886, 0.421113, 0.454528, 0.526732, 0.638393, 0.729687, 0.770016, 0.781343, 0.788735, 0.788855, 0.793477, 0.791706, 0.785578, 0.789378, 0.778782, 0.764985, 0.757661, 0.750978, 0.75014, 0.746939, 0.750436, 0.755047, 0.765132, 0.770488, 0.777905, 0.780639, 0.785811, 0.782491, 0.788132, 0.794666, 0.801662, 0.811259, 0.80934, 0.812193
ARTFGREEN, 0.209079, 0.195551, 0.1577, 0.124283, 0.101556, 0.08917, 0.081567, 0.077666, 0.080889, 0.093886, 0.130556, 0.213608, 0.372238, 0.560675, 0.705601, 0.770878, 0.783552, 0.772282, 0.753831, 0.726501, 0.694471, 0.669333, 0.649552, 0.637142, 0.633506, 0.640739, 0.6524, 0.665347, 0.664089, 0.650972, 0.650431, 0.675475, 0.719538, 0.764665, 0.796259, 0.827297, 0.84693, 0.865471, 0.876217, 0.885346, 0.895847
PAPYEL, 0.278209, 0.265281, 0.230452, 0.194074, 0.169372, 0.146383, 0.138098, 0.13622, 0.143085, 0.171329, 0.238791, 0.355797, 0.497135, 0.600971, 0.643265, 0.657153, 0.661547, 0.666559, 0.667513, 0.67435, 0.680381, 0.681391, 0.685634, 0.685786, 0.687217, 0.686045, 0.684872, 0.688353, 0.6872, 0.686022, 0.685498, 0.686133, 0.684975, 0.687394, 0.68551, 0.688519, 0.687926, 0.688152, 0.693073, 0.687178, 0.693389
IXCROORA, 0.53599, 0.55504, 0.5538, 0.557079, 0.547187, 0.531303, 0.524085, 0.525463, 0.530556, 0.549508, 0.582305, 0.620286, 0.630726, 0.608392, 0.570625, 0.547977, 0.555997, 0.587387, 0.614301, 0.656326, 0.725507, 0.778483, 0.802452, 0.809898, 0.812805, 0.813825, 0.814686, 0.819393, 0.817485, 0.819629, 0.82174, 0.823073, 0.823765, 0.826982, 0.822117, 0.828426, 0.829649, 0.828494, 0.833455, 0.828028, 0.831298
POLGREE, 0.0914925, 0.0832433, 0.0694291, 0.0601134, 0.0533205, 0.0458453, 0.046475, 0.0463627, 0.0473357, 0.0478672, 0.0586612, 0.0979797, 0.183529, 0.291216, 0.327679, 0.314026, 0.278611, 0.233881, 0.191206, 0.155463, 0.129133, 0.111063, 0.0945435, 0.0864894, 0.0824757, 0.0830019, 0.0835595, 0.0869004, 0.0891029, 0.0915309, 0.096891, 0.0987912, 0.0995679, 0.103013, 0.105722, 0.120489, 0.140316, 0.177743, 0.232178, 0.240488, 0.287746
CIPLAW10, 0.255292, 0.334354, 0.425844, 0.585465, 0.74344, 0.800196, 0.821183, 0.834423, 0.831315, 0.836804, 0.840625, 0.846269, 0.847439, 0.849377, 0.854838, 0.851634, 0.857175, 0.85893, 0.858966, 0.855872, 0.863417, 0.859792, 0.862011, 0.863646, 0.863855, 0.861954, 0.847581, 0.825222, 0.778486, 0.716476, 0.721352, 0.701103, 0.66415, 0.653062, 0.631394, 0.626901, 0.673961, 0.742954, 0.800629, 0.824257, 0.842589
PAPGRE, 0.317024, 0.297673, 0.261835, 0.223355, 0.189626, 0.167201, 0.157777, 0.157351, 0.162946, 0.195774, 0.26498, 0.385908, 0.530879, 0.630152, 0.670882, 0.678722, 0.679759, 0.67669, 0.662493, 0.65017, 0.640959, 0.624222, 0.60253, 0.582695, 0.574105, 0.573067, 0.572445, 0.571343, 0.545004, 0.506841, 0.498294, 0.537754, 0.600685, 0.64744, 0.666563, 0.686691, 0.693346, 0.700641, 0.707351, 0.704842, 0.710964
PFUJIWH, 0.113875, 0.183921, 0.214214, 0.446668, 0.708982, 0.753002, 0.77013, 0.781381, 0.774545, 0.782093, 0.781674, 0.785384, 0.782481, 0.77913, 0.773256, 0.768381, 0.764621, 0.761419, 0.753323, 0.749609, 0.755772, 0.753874, 0.756838, 0.757752, 0.760706, 0.763954, 0.767036, 0.775294, 0.784377, 0.794624, 0.808248, 0.825426, 0.836623, 0.848735, 0.850436, 0.855576, 0.86078, 0.860724, 0.863804, 0.864489, 0.863223
GOLF, 0.205374, 0.244926, 0.280153, 0.541788, 0.91368, 0.985578, 0.994681, 1.00468, 1.00717, 0.998772, 0.988534, 0.977278, 0.966361, 0.958015, 0.930984, 0.921199, 0.906828, 0.894186, 0.884086, 0.865609, 0.7837, 0.781041, 0.765114, 0.768023, 0.766819, 0.769413, 0.765969, 0.771541, 0.77489, 0.782963, 0.789362, 0.79947, 0.800835, 0.819771, 0.802896, 0.828924, 0.818103, 0.823858, 0.837037, 0.77527, 0.873639
PLAORAN, 0.0174085, 0.016645, 0.0189333, 0.0214891, 0.0169103, 0.018362, 0.0205001, 0.0213699, 0.0208501, 0.0230899, 0.0259798, 0.0390537, 0.0402431, 0.0280497, 0.0154662, 0.00973087, 0.00942837, 0.0105022, 0.00515022, 0.0126677, 0.0329391, 0.130545, 0.315587, 0.469114, 0.533623, 0.550187, 0.553073, 0.552501, 0.549615, 0.5477, 0.542563, 0.538001, 0.534818, 0.533916, 0.529924, 0.528478, 0.526273, 0.521243, 0.521934, 0.51269, 0.51568
PHP8HP5K, 0.0397962, 0.0606837, 0.0766307, 0.175495, 0.344202, 0.417964, 0.449714, 0.463142, 0.459589, 0.457147, 0.451662, 0.453143, 0.459229, 0.474749, 0.479843, 0.472202, 0.459033, 0.434736, 0.407589, 0.389802, 0.396326, 0.413351, 0.442257, 0.457811, 0.460211, 0.457167, 0.459604, 0.469629, 0.485625, 0.496922, 0.509405, 0.528617, 0.548975, 0.568248, 0.574895, 0.591356, 0.603154, 0.614385, 0.630219, 0.637604, 0.64496
PHP8HP5C, 0.0382939, 0.0571082, 0.076431, 0.170396, 0.349571, 0.472725, 0.558433, 0.611387, 0.627326, 0.634991, 0.626058, 0.616603, 0.596571, 0.562961, 0.524055, 0.477241, 0.430242, 0.377075, 0.323512, 0.281006, 0.25125, 0.232087, 0.220892, 0.210783, 0.200693, 0.194342, 0.196789, 0.208596, 0.227487, 0.248079, 0.271609, 0.304304, 0.34079, 0.372737, 0.393125, 0.419119, 0.444258, 0.466694, 0.499558, 0.516835, 0.539822
CIPLAW9, 0.285809, 0.382967, 0.468457, 0.617815, 0.76102, 0.808535, 0.821738, 0.831259, 0.826415, 0.834181, 0.834376, 0.837792, 0.838778, 0.841093, 0.841535, 0.843751, 0.846036, 0.847354, 0.847469, 0.841052, 0.854906, 0.85164, 0.854196, 0.857205, 0.854011, 0.850674, 0.84026, 0.818284, 0.772096, 0.70506, 0.710728, 0.688649, 0.652409, 0.639009, 0.619265, 0.615129, 0.663192, 0.733216, 0.791553, 0.813416, 0.831611
IXCRHMAG, 0.561245, 0.590629, 0.616001, 0.652949, 0.679978, 0.696421, 0.715055, 0.717616, 0.6975, 0.672085, 0.62577, 0.578058, 0.534699, 0.492328, 0.444785, 0.424118, 0.426149, 0.439725, 0.450221, 0.486242, 0.568058, 0.664447, 0.741097, 0.788048, 0.806518, 0.81609, 0.817261, 0.821584, 0.823736, 0.824156, 0.824941, 0.826321, 0.826534, 0.830049, 0.827409, 0.832426, 0.832742, 0.833493, 0.839339, 0.833022, 0.83691
POLYRED, 0.0524419, 0.048437, 0.0468082, 0.0465997, 0.0421415, 0.0403854, 0.0433834, 0.0429108, 0.0411723, 0.0391783, 0.0395487, 0.0404117, 0.0382721, 0.0384084, 0.0363078, 0.0400084, 0.0394868, 0.0395973, 0.0420788, 0.0446694, 0.0534601, 0.0811333, 0.152974, 0.276529, 0.404207, 0.491082, 0.519551, 0.532875, 0.500113, 0.404365, 0.411436, 0.486594, 0.533558, 0.57358, 0.575142, 0.606493, 0.606857, 0.619401, 0.650012, 0.595623, 0.670405
IXCAXPMA, 0.403352, 0.432013, 0.449803, 0.474129, 0.495225, 0.502177, 0.512923, 0.500956, 0.439887, 0.381791, 0.345614, 0.317254, 0.289966, 0.262518, 0.228853, 0.213084, 0.209683, 0.205805, 0.184617, 0.188836, 0.255027, 0.37688, 0.522394, 0.613462, 0.634318, 0.650927, 0.684155, 0.734101, 0.779721, 0.813234, 0.833876, 0.845782, 0.855082, 0.861393, 0.861895, 0.869169, 0.869478, 0.873375, 0.878056, 0.874709, 0.876626
CIPLAW8, 0.322826, 0.437698, 0.523422, 0.655488, 0.767662, 0.801891, 0.815099, 0.823617, 0.821997, 0.82705, 0.827444, 0.832706, 0.832175, 0.83672, 0.840124, 0.839156, 0.839993, 0.841893, 0.843145, 0.835414, 0.852392, 0.848763, 0.852196, 0.853624, 0.852785, 0.850109, 0.839559, 0.812967, 0.769264, 0.702424, 0.710019, 0.685543, 0.652594, 0.638297, 0.616232, 0.614075, 0.661456, 0.732417, 0.79142, 0.814452, 0.833727
IXCMMINT, 0.380438, 0.423044, 0.452128, 0.500274, 0.522985, 0.51683, 0.521834, 0.530836, 0.542753, 0.571497, 0.629642, 0.699962, 0.746102, 0.759511, 0.755444, 0.74056, 0.724106, 0.70029, 0.663317, 0.631572, 0.607981, 0.582994, 0.559091, 0.54011, 0.532301, 0.530864, 0.530369, 0.541261, 0.554429, 0.566971, 0.573062, 0.574693, 0.568593, 0.563472, 0.566941, 0.591212, 0.626254, 0.678711, 0.735741, 0.755281, 0.768383
HERPIBLU, 0.042883, 0.0491641, 0.0614087, 0.0977091, 0.179521, 0.288604, 0.409963, 0.486619, 0.518705, 0.53962, 0.532934, 0.510371, 0.458991, 0.385012, 0.298292, 0.216906, 0.146662, 0.0995512, 0.064347, 0.0489982, 0.0426356, 0.0394759, 0.0386235, 0.0367225, 0.0376892, 0.0366092, 0.0375303, 0.0406731, 0.0430581, 0.043473, 0.0449708, 0.0448908, 0.0446742, 0.0458886, 0.0499471, 0.0640968, 0.09211, 0.169503, 0.333961, 0.476127, 0.596357
PHP8RV5Y, 0.208002, 0.234637, 0.270439, 0.35309, 0.410835, 0.417424, 0.420183, 0.430848, 0.436637, 0.456616, 0.481695, 0.522877, 0.592361, 0.680919, 0.750523, 0.779929, 0.791204, 0.794344, 0.788896, 0.784948, 0.792706, 0.79625, 0.807856, 0.819221, 0.821465, 0.825273, 0.824144, 0.826767, 0.826237, 0.824135, 0.821539, 0.825526, 0.826747, 0.827063, 0.825656, 0.829482, 0.829232, 0.829956, 0.834105, 0.828567, 0.82997
PFUJI5C, 0.0928033, 0.150696, 0.176579, 0.343276, 0.49709, 0.520319, 0.533309, 0.539751, 0.538678, 0.542513, 0.532408, 0.515824, 0.492334, 0.460708, 0.425062, 0.38982, 0.363006, 0.332067, 0.302707, 0.276653, 0.258287, 0.232343, 0.204542, 0.175009, 0.154343, 0.142835, 0.142891, 0.145989, 0.151494, 0.173927, 0.22738, 0.314003, 0.429338, 0.551292, 0.647982, 0.726768, 0.773983, 0.803451, 0.828894, 0.835818, 0.8447
IXCPUPI, 0.530702, 0.565341, 0.590257, 0.631203, 0.669242, 0.683241, 0.707179, 0.717725, 0.706939, 0.683898, 0.64333, 0.602989, 0.558355, 0.513138, 0.476029, 0.451083, 0.443728, 0.446191, 0.441681, 0.460639, 0.513086, 0.587909, 0.673924, 0.748677, 0.790261, 0.806111, 0.809102, 0.814993, 0.817483, 0.819507, 0.821181, 0.82325, 0.820949, 0.825251, 0.82228, 0.828776, 0.829975, 0.828796, 0.833969, 0.826936, 0.832227
PLIWFWH, 0.409142, 0.460166, 0.512125, 0.609466, 0.693609, 0.71873, 0.737674, 0.753439, 0.751855, 0.758684, 0.762875, 0.767449, 0.768731, 0.770418, 0.773048, 0.773138, 0.778255, 0.777739, 0.779183, 0.775174, 0.780592, 0.77777, 0.777942, 0.776843, 0.779553, 0.781104, 0.775679, 0.783742, 0.77999, 0.780715, 0.779744, 0.779774, 0.774668, 0.782192, 0.766387, 0.779654, 0.777939, 0.773594, 0.783481, 0.757534, 0.773179
IXCBBLUE, 0.295086, 0.355865, 0.410232, 0.521943, 0.631595, 0.673203, 0.714755, 0.737744, 0.747064, 0.754141, 0.75727, 0.758192, 0.75134, 0.737038, 0.715378, 0.681483, 0.644463, 0.599218, 0.543961, 0.496615, 0.471777, 0.450696, 0.434469, 0.421523, 0.417816, 0.419427, 0.42089, 0.436114, 0.451801, 0.459884, 0.457574, 0.451648, 0.435245, 0.424773, 0.431546, 0.464236, 0.512239, 0.598916, 0.715569, 0.769841, 0.793994
IXCCLBL, 0.0664706, 0.0952319, 0.134467, 0.197288, 0.29968, 0.394413, 0.501439, 0.567999, 0.585842, 0.595835, 0.585884, 0.563151, 0.515467, 0.448845, 0.3673, 0.286888, 0.21605, 0.157656, 0.110981, 0.0819287, 0.0703571, 0.0621947, 0.058546, 0.0548054, 0.0540384, 0.0559344, 0.0556455, 0.0600417, 0.0650326, 0.0650416, 0.064042, 0.0619155, 0.0569933, 0.0582797, 0.062617, 0.0730855, 0.0986476, 0.159315, 0.307828, 0.449275, 0.571014
IXCAXPGR, 0.226996, 0.213164, 0.19988, 0.189264, 0.180846, 0.170221, 0.172816, 0.174874, 0.178765, 0.187809, 0.21002, 0.269756, 0.394495, 0.575212, 0.696099, 0.720856, 0.711264, 0.675941, 0.627902, 0.573197, 0.525794, 0.468639, 0.420603, 0.388567, 0.370787, 0.364153, 0.359585, 0.361291, 0.370462, 0.386712, 0.404067, 0.418206, 0.425984, 0.428743, 0.425035, 0.439948, 0.465615, 0.505092, 0.547161, 0.560631, 0.578359
PXEROY5R, 0.149564, 0.166522, 0.192714, 0.254034, 0.303471, 0.310638, 0.330468, 0.353028, 0.370861, 0.406962, 0.46917, 0.566929, 0.679403, 0.7542, 0.778943, 0.783541, 0.788655, 0.7894, 0.785847, 0.781686, 0.789368, 0.791585, 0.797676, 0.800595, 0.801229, 0.805186, 0.80414, 0.804121, 0.805637, 0.802437, 0.80098, 0.802096, 0.803895, 0.806478, 0.803837, 0.806714, 0.807565, 0.805666, 0.809258, 0.80674, 0.808083
PKODXLWH, 0.325958, 0.468883, 0.524287, 0.631372, 0.760412, 0.80894, 0.823736, 0.832136, 0.835863, 0.837575, 0.84082, 0.845198, 0.847453, 0.847061, 0.845967, 0.838929, 0.837531, 0.838687, 0.832115, 0.829428, 0.843232, 0.844127, 0.848016, 0.853617, 0.850682, 0.853813, 0.854341, 0.859315, 0.865168, 0.866372, 0.868203, 0.866653, 0.866721, 0.868547, 0.868211, 0.872415, 0.871649, 0.872191, 0.876107, 0.873603, 0.874723
PXEROM5R, 0.163623, 0.189465, 0.233656, 0.317037, 0.380354, 0.384779, 0.382519, 0.374937, 0.364354, 0.362898, 0.359081, 0.361091, 0.367368, 0.356092, 0.325603, 0.295559, 0.288592, 0.293614, 0.28298, 0.283851, 0.329038, 0.418659, 0.524067, 0.610516, 0.664359, 0.694194, 0.704418, 0.711591, 0.718307, 0.716148, 0.715222, 0.716868, 0.715498, 0.716784, 0.719607, 0.724639, 0.733288, 0.746474, 0.762252, 0.768475, 0.77132
LITWFWH, 0.407768, 0.458173, 0.513684, 0.602865, 0.680309, 0.707939, 0.726156, 0.745721, 0.745236, 0.756348, 0.759502, 0.763544, 0.765678, 0.767859, 0.771661, 0.768371, 0.773573, 0.774593, 0.773522, 0.769155, 0.775187, 0.773124, 0.774737, 0.776986, 0.775597, 0.774893, 0.773206, 0.776211, 0.778125, 0.777669, 0.775297, 0.773644, 0.774629, 0.776851, 0.768788, 0.773914, 0.773575, 0.773829, 0.776131, 0.765119, 0.772027
PFUJI5M, 0.0914106, 0.146256, 0.16847, 0.304353, 0.407998, 0.401379, 0.39898, 0.386857, 0.371738, 0.363966, 0.35374, 0.336237, 0.317086, 0.293683, 0.270667, 0.250895, 0.237741, 0.237826, 0.245203, 0.268813, 0.324553, 0.39762, 0.484601, 0.549808, 0.582395, 0.599411, 0.608303, 0.620179, 0.632737, 0.65421, 0.692876, 0.739002, 0.782081, 0.815807, 0.833385, 0.846639, 0.850605, 0.854377, 0.859844, 0.85923, 0.861231
PHP8HP1C, 0.0309166, 0.0419463, 0.0560387, 0.104878, 0.224308, 0.342098, 0.444117, 0.508696, 0.533217, 0.542347, 0.530298, 0.517853, 0.492168, 0.446968, 0.394617, 0.337214, 0.281089, 0.225959, 0.166712, 0.124614, 0.0972124, 0.0824639, 0.0740016, 0.0649478, 0.0577894, 0.0543148, 0.0548266, 0.0608279, 0.0756958, 0.0890235, 0.106374, 0.141542, 0.183212, 0.219172, 0.246669, 0.277783, 0.304372, 0.337053, 0.376347, 0.400392, 0.430254
PFUJI5Y, 0.0930779, 0.139531, 0.149003, 0.24859, 0.313804, 0.308676, 0.310355, 0.314758, 0.313453, 0.334521, 0.366442, 0.418946, 0.493776, 0.576292, 0.656001, 0.704231, 0.725986, 0.736981, 0.733996, 0.735165, 0.747855, 0.747981, 0.750829, 0.753922, 0.752898, 0.75734, 0.760148, 0.770361, 0.77818, 0.78769, 0.8058, 0.8215, 0.835386, 0.847545, 0.849064, 0.856723, 0.858357, 0.860282, 0.862407, 0.862548, 0.860978
PHP8RV5M, 0.194815, 0.223655, 0.259613, 0.350605, 0.417622, 0.434136, 0.451731, 0.457408, 0.438873, 0.426775, 0.405737, 0.398015, 0.393774, 0.386427, 0.373747, 0.372403, 0.374336, 0.361715, 0.340017, 0.340066, 0.379117, 0.468612, 0.606599, 0.723628, 0.782586, 0.808289, 0.815388, 0.820646, 0.823706, 0.82439, 0.822534, 0.8248, 0.825881, 0.828791, 0.826227, 0.830916, 0.832563, 0.829755, 0.833624, 0.830579, 0.831672
POLYPUR, 0.198001, 0.237839, 0.266437, 0.279512, 0.276383, 0.25497, 0.223532, 0.183329, 0.140943, 0.104625, 0.0785651, 0.0615226, 0.0508809, 0.0452626, 0.0430524, 0.0408182, 0.0410133, 0.0393245, 0.0378297, 0.0399546, 0.0382859, 0.0403545, 0.0417957, 0.0587062, 0.103921, 0.21708, 0.3619, 0.473338, 0.531854, 0.550549, 0.565216, 0.579548, 0.583326, 0.601815, 0.587154, 0.611222, 0.605493, 0.613471, 0.638733, 0.582254, 0.655786
PXEROC5R, 0.088485, 0.13296, 0.201045, 0.32357, 0.40529, 0.447225, 0.498678, 0.528701, 0.528561, 0.527086, 0.519388, 0.507514, 0.486192, 0.44891, 0.398086, 0.33663, 0.282026, 0.231414, 0.17783, 0.144134, 0.133091, 0.129443, 0.130612, 0.127481, 0.1284, 0.130624, 0.13469, 0.140269, 0.150136, 0.152215, 0.148344, 0.143542, 0.137077, 0.13531, 0.142276, 0.163504, 0.202038, 0.283641, 0.423452, 0.525117, 0.595995
PLIWF4M, 0.280087, 0.307099, 0.335306, 0.385589, 0.429514, 0.450074, 0.468558, 0.473132, 0.456204, 0.443034, 0.419913, 0.406399, 0.387648, 0.366641, 0.347805, 0.336889, 0.33406, 0.328948, 0.313453, 0.303751, 0.343835, 0.462745, 0.600805, 0.686808, 0.726567, 0.746471, 0.749891, 0.758714, 0.761494, 0.763232, 0.760779, 0.762352, 0.761115, 0.761555, 0.759032, 0.764087, 0.765194, 0.764075, 0.766525, 0.761809, 0.761132
IXCRINFR, 0.112282, 0.0981171, 0.0893988, 0.0888832, 0.0843171, 0.078328, 0.0828679, 0.074708, 0.0625597, 0.0562422, 0.050144, 0.0502603, 0.0476715, 0.0486142, 0.0476843, 0.0541513, 0.0583517, 0.0613345, 0.057998, 0.0700883, 0.108511, 0.20074, 0.380886, 0.583916, 0.706234, 0.755994, 0.777041, 0.78779, 0.796804, 0.800469, 0.806072, 0.808096, 0.809635, 0.816272, 0.814108, 0.820208, 0.820762, 0.820953, 0.827175, 0.823276, 0.826256
PKODXL5M, 0.287819, 0.380268, 0.399467, 0.43312, 0.449473, 0.397347, 0.348868, 0.308647, 0.27002, 0.266213, 0.280467, 0.285061, 0.261951, 0.235013, 0.216516, 0.205134, 0.203846, 0.209441, 0.223872, 0.261474, 0.329375, 0.405794, 0.492544, 0.574225, 0.634273, 0.671513, 0.684852, 0.694952, 0.70055, 0.702977, 0.707226, 0.716021, 0.727449, 0.742631, 0.75484, 0.776185, 0.793331, 0.806183, 0.824819, 0.835502, 0.840607
PKODXL5C, 0.19064, 0.266411, 0.31697, 0.410355, 0.532794, 0.614898, 0.67367, 0.695925, 0.691073, 0.676403, 0.650215, 0.618734, 0.577332, 0.530418, 0.486714, 0.448031, 0.414033, 0.383, 0.35005, 0.325539, 0.302531, 0.271096, 0.240692, 0.208338, 0.181812, 0.156651, 0.138629, 0.127012, 0.119688, 0.11656, 0.119541, 0.130789, 0.146234, 0.170558, 0.200666, 0.244277, 0.292803, 0.348398, 0.418017, 0.474774, 0.533974
PHP8RV5K, 0.156848, 0.182259, 0.208587, 0.269157, 0.32057, 0.345635, 0.368301, 0.378506, 0.377502, 0.38277, 0.379039, 0.387122, 0.405622, 0.415855, 0.40944, 0.397092, 0.384682, 0.354802, 0.317371, 0.298494, 0.307863, 0.336622, 0.372084, 0.391931, 0.391089, 0.388525, 0.389853, 0.406422, 0.421528, 0.427662, 0.446295, 0.497237, 0.563913, 0.619746, 0.657355, 0.692858, 0.716093, 0.734218, 0.752087, 0.758483, 0.766396
PLIWF4Y, 0.25517, 0.268194, 0.276708, 0.29717, 0.313346, 0.306923, 0.312941, 0.325036, 0.340607, 0.352557, 0.367736, 0.428472, 0.533741, 0.658878, 0.726503, 0.746643, 0.750988, 0.755031, 0.752669, 0.750097, 0.75715, 0.757047, 0.761864, 0.762455, 0.763074, 0.763725, 0.761454, 0.765458, 0.765552, 0.766351, 0.765682, 0.765239, 0.763395, 0.764512, 0.760493, 0.762481, 0.763899, 0.761309, 0.764637, 0.761454, 0.758478
POLYBLUE, 0.0472991, 0.052275, 0.0578255, 0.0717005, 0.0964468, 0.113912, 0.139233, 0.17204, 0.186426, 0.184796, 0.170176, 0.1497, 0.124762, 0.103537, 0.0821046, 0.0667318, 0.0558176, 0.0487665, 0.0432722, 0.0422045, 0.0397037, 0.0414947, 0.0395901, 0.0396132, 0.0387688, 0.0409112, 0.0423451, 0.0434908, 0.0432888, 0.0414427, 0.0423401, 0.0416652, 0.0421075, 0.0441918, 0.0448835, 0.0482687, 0.0503056, 0.0560937, 0.069869, 0.0758604, 0.101339
PKODXL5Y, 0.300125, 0.374495, 0.355851, 0.339184, 0.301225, 0.224662, 0.185062, 0.159414, 0.141085, 0.161666, 0.242808, 0.36544, 0.48063, 0.561592, 0.621709, 0.664449, 0.698819, 0.729237, 0.75007, 0.767379, 0.797147, 0.811322, 0.828508, 0.837798, 0.839791, 0.844956, 0.847463, 0.854865, 0.858707, 0.861565, 0.862279, 0.861467, 0.862505, 0.863908, 0.861502, 0.866247, 0.867046, 0.867999, 0.869984, 0.867774, 0.866996
PLIWF1M, 0.160108, 0.160202, 0.165807, 0.187744, 0.211241, 0.222753, 0.240644, 0.239992, 0.210691, 0.184719, 0.152463, 0.127708, 0.098003, 0.0739786, 0.0534093, 0.0462887, 0.0453972, 0.0401402, 0.0283991, 0.0255565, 0.0602992, 0.215217, 0.439146, 0.591443, 0.668066, 0.701975, 0.716852, 0.727904, 0.734839, 0.736362, 0.735407, 0.736495, 0.736425, 0.739317, 0.735032, 0.740993, 0.744784, 0.74532, 0.749045, 0.746552, 0.745054
PLIWF4C, 0.251795, 0.320124, 0.39813, 0.499376, 0.568859, 0.610927, 0.657221, 0.687104, 0.695081, 0.70265, 0.702311, 0.699142, 0.687633, 0.668553, 0.636598, 0.598876, 0.554317, 0.507934, 0.455042, 0.415618, 0.392751, 0.376757, 0.366356, 0.358451, 0.356973, 0.358597, 0.360122, 0.370931, 0.37939, 0.383594, 0.377582, 0.373385, 0.35885, 0.355233, 0.35831, 0.380922, 0.417604, 0.493316, 0.607046, 0.667128, 0.705698
PLIWF1C, 0.0892382, 0.166195, 0.261489, 0.371774, 0.441633, 0.502583, 0.579169, 0.626658, 0.636402, 0.646262, 0.640381, 0.627785, 0.602726, 0.561379, 0.504171, 0.428099, 0.348972, 0.267766, 0.182213, 0.124863, 0.0975617, 0.0784194, 0.0670233, 0.0562603, 0.0562275, 0.0573356, 0.0624322, 0.0722955, 0.0842918, 0.0902047, 0.0867283, 0.0809922, 0.067774, 0.062212, 0.0695269, 0.0955692, 0.146662, 0.264003, 0.452089, 0.571777, 0.640883
PKODXL1C, 0.040542, 0.0599528, 0.0863587, 0.14358, 0.224455, 0.321868, 0.428694, 0.497875, 0.509988, 0.494693, 0.453811, 0.402892, 0.344503, 0.283949, 0.229831, 0.180527, 0.138666, 0.103167, 0.0714619, 0.0472628, 0.031605, 0.0167742, 0.0115779, 0.00625763, 0.00398591, 0.00144658, 0.00242101, 0.000543252, 0.000881125, 0.0, 0.0, 0.00139369, 0.00153764, 0.00350526, 0.00461054, 0.00910075, 0.0188207, 0.038509, 0.0759547, 0.115381, 0.170061
PHP8HP1M, 0.0277997, 0.0359814, 0.0419373, 0.0780654, 0.132746, 0.152888, 0.177881, 0.183214, 0.167179, 0.152208, 0.125463, 0.10264, 0.0863972, 0.0690448, 0.0512262, 0.0440068, 0.0400729, 0.0340058, 0.0244938, 0.0262849, 0.0465212, 0.129195, 0.316509, 0.512704, 0.638527, 0.701218, 0.725409, 0.736463, 0.74126, 0.743582, 0.739252, 0.743202, 0.742187, 0.743093, 0.738582, 0.740702, 0.740324, 0.737596, 0.738281, 0.733565, 0.734422
PXEROM1R, 0.0868239, 0.102017, 0.126737, 0.161104, 0.184703, 0.179882, 0.176021, 0.172585, 0.159612, 0.153625, 0.143557, 0.136082, 0.128853, 0.111621, 0.0795795, 0.0575958, 0.05262, 0.0558141, 0.0504596, 0.0513423, 0.0901777, 0.192285, 0.329734, 0.453177, 0.535963, 0.579048, 0.597464, 0.61141, 0.616307, 0.617683, 0.619295, 0.618305, 0.616894, 0.618172, 0.619817, 0.631346, 0.644559, 0.666076, 0.696358, 0.709866, 0.716074
PXEROK5R, 0.0815159, 0.100119, 0.126266, 0.166265, 0.197747, 0.206228, 0.22569, 0.239179, 0.24317, 0.264482, 0.292464, 0.336638, 0.380236, 0.391064, 0.365272, 0.32869, 0.304965, 0.28496, 0.253922, 0.238494, 0.24675, 0.275015, 0.307175, 0.329511, 0.341335, 0.350346, 0.357327, 0.365392, 0.372148, 0.374025, 0.371437, 0.368548, 0.361632, 0.360596, 0.364687, 0.385747, 0.417756, 0.477934, 0.571424, 0.634016, 0.67177
MSCHIP1, 0.0660381, 0.102521, 0.134952, 0.137258, 0.127981, 0.118739, 0.120149, 0.118555, 0.111101, 0.116263, 0.110734, 0.102718, 0.0936553, 0.0907857, 0.0868236, 0.0809736, 0.0859447, 0.114942, 0.144459, 0.163165, 0.228264, 0.329907, 0.400632, 0.423073, 0.43332, 0.433678, 0.432161, 0.430797, 0.430492, 0.426824, 0.422942, 0.422814, 0.420379, 0.421882, 0.413472, 0.418199, 0.41402, 0.413589, 0.41543, 0.404723, 0.413249
PFUJI5K, 0.0686022, 0.110044, 0.119312, 0.198782, 0.248446, 0.242463, 0.24198, 0.238048, 0.230893, 0.235288, 0.23931, 0.244296, 0.243052, 0.233536, 0.215966, 0.198767, 0.183453, 0.174674, 0.165904, 0.170702, 0.182468, 0.191215, 0.191612, 0.177678, 0.163817, 0.155067, 0.155923, 0.160398, 0.165879, 0.186981, 0.244489, 0.330892, 0.444475, 0.563775, 0.658182, 0.735275, 0.78209, 0.809778, 0.831283, 0.841097, 0.847031
PHP8HP1Y, 0.0300832, 0.0322882, 0.0338822, 0.0449097, 0.0579852, 0.0559788, 0.0561017, 0.061135, 0.0585144, 0.0685063, 0.0853202, 0.116467, 0.190631, 0.355838, 0.54716, 0.65348, 0.694855, 0.703288, 0.690221, 0.688606, 0.712905, 0.735017, 0.762281, 0.774421, 0.77956, 0.783044, 0.777997, 0.778892, 0.775412, 0.773215, 0.770054, 0.767754, 0.763975, 0.764075, 0.758881, 0.757381, 0.755952, 0.753116, 0.753307, 0.746867, 0.747118
MCMODRED, 0.094518, 0.122432, 0.141117, 0.141826, 0.140541, 0.129023, 0.130034, 0.130378, 0.121336, 0.125474, 0.120029, 0.112425, 0.102541, 0.0987971, 0.0926416, 0.0891279, 0.0919364, 0.100851, 0.105142, 0.109869, 0.154078, 0.260876, 0.3958, 0.50153, 0.561743, 0.58936, 0.598011, 0.604545, 0.607498, 0.608151, 0.608955, 0.611496, 0.609712, 0.613861, 0.610863, 0.617731, 0.619725, 0.61732, 0.622175, 0.618179, 0.621393
PFUJI1M, 0.040044, 0.0737227, 0.0912099, 0.143685, 0.163608, 0.134892, 0.120817, 0.103498, 0.0809644, 0.067828, 0.0478654, 0.034342, 0.0195279, 0.0106465, 0.00661591, 0.00511075, 0.00454057, 0.00688842, 0.00249741, 0.00760973, 0.019774, 0.055603, 0.13735, 0.246459, 0.337172, 0.390888, 0.4225, 0.443972, 0.4611, 0.488989, 0.543637, 0.61568, 0.691288, 0.758791, 0.798563, 0.831534, 0.844021, 0.852845, 0.859139, 0.859751, 0.864874
P3MP1K, 0.0260109, 0.0504613, 0.105532, 0.161739, 0.187171, 0.185477, 0.197135, 0.204428, 0.203508, 0.209532, 0.210617, 0.213362, 0.213212, 0.210191, 0.211448, 0.21002, 0.207226, 0.206767, 0.198212, 0.196953, 0.176387, 0.175354, 0.178029, 0.17782, 0.176282, 0.178651, 0.176977, 0.178662, 0.178676, 0.177843, 0.17587, 0.176146, 0.174692, 0.176571, 0.17406, 0.177733, 0.180116, 0.185417, 0.192327, 0.192929, 0.192531
IXCSWH2, 0.619973, 0.645456, 0.674067, 0.706059, 0.729659, 0.735291, 0.749485, 0.763852, 0.766968, 0.775285, 0.781373, 0.783461, 0.786625, 0.783647, 0.786809, 0.789456, 0.791903, 0.797327, 0.796896, 0.800125, 0.807484, 0.80544, 0.807248, 0.811032, 0.810057, 0.813344, 0.81125, 0.817561, 0.817947, 0.819873, 0.818839, 0.820316, 0.821312, 0.825982, 0.821941, 0.828446, 0.829017, 0.828714, 0.834212, 0.828788, 0.83233
PLTOSFWH, 0.699993, 0.716641, 0.727365, 0.743556, 0.757183, 0.75746, 0.763812, 0.771091, 0.770181, 0.764535, 0.766354, 0.764054, 0.764455, 0.76174, 0.757538, 0.758586, 0.759584, 0.760991, 0.76163, 0.75893, 0.761471, 0.755484, 0.757371, 0.759934, 0.757688, 0.760147, 0.757098, 0.764653, 0.769488, 0.773878, 0.775889, 0.782488, 0.782796, 0.786105, 0.783119, 0.787919, 0.789206, 0.790389, 0.793774, 0.788511, 0.790849
PFUJI1C, 0.0552101, 0.0849672, 0.10213, 0.178548, 0.244885, 0.264786, 0.278875, 0.294986, 0.307026, 0.321085, 0.322103, 0.320483, 0.303412, 0.271553, 0.233077, 0.194031, 0.153467, 0.115404, 0.0770926, 0.0526505, 0.0351676, 0.018587, 0.0120206, 0.00552068, 0.00423163, 0.00411361, 0.00310996, 0.00231297, 0.00306674, 0.00489833, 0.0120845, 0.0326747, 0.0840897, 0.175755, 0.283386, 0.403976, 0.507923, 0.595576, 0.673377, 0.719261, 0.756203
PHP8HP1K, 0.0182552, 0.0268341, 0.0304674, 0.0464592, 0.0782608, 0.0863837, 0.0977085, 0.101874, 0.0975483, 0.102353, 0.105279, 0.106197, 0.114212, 0.116038, 0.112135, 0.107349, 0.0997223, 0.0858525, 0.0727505, 0.0696149, 0.0748444, 0.0820771, 0.0879618, 0.0862474, 0.0796962, 0.0757245, 0.0759674, 0.0842546, 0.0936969, 0.0948031, 0.100954, 0.126228, 0.159138, 0.182893, 0.199737, 0.215412, 0.22847, 0.23933, 0.251763, 0.254615, 0.260908
PEP1C, 0.0305639, 0.0516731, 0.0949286, 0.178138, 0.281563, 0.374886, 0.482691, 0.548619, 0.583842, 0.610128, 0.596335, 0.557097, 0.495118, 0.414716, 0.325864, 0.232805, 0.156469, 0.0978917, 0.0544548, 0.0342839, 0.0257747, 0.0191319, 0.0192777, 0.0167296, 0.0171624, 0.0189413, 0.0187583, 0.0189349, 0.0172395, 0.0145222, 0.0154633, 0.0239869, 0.0366192, 0.0616189, 0.0876726, 0.124923, 0.168617, 0.215478, 0.273879, 0.317861, 0.365078
PLIWF1Y, 0.117229, 0.10522, 0.0873238, 0.073087, 0.0606799, 0.0497192, 0.0518893, 0.0596115, 0.0725218, 0.0855189, 0.103176, 0.174643, 0.332018, 0.536024, 0.667597, 0.708878, 0.723794, 0.725299, 0.723074, 0.719996, 0.734284, 0.738614, 0.742317, 0.742601, 0.744659, 0.74902, 0.748229, 0.750634, 0.753881, 0.754739, 0.753374, 0.754075, 0.752103, 0.752659, 0.748312, 0.75463, 0.755763, 0.756928, 0.759671, 0.755108, 0.755622
PXEROC1R, 0.0362212, 0.0657257, 0.120998, 0.207877, 0.263423, 0.304455, 0.358565, 0.385472, 0.383081, 0.378714, 0.36626, 0.348851, 0.323395, 0.288128, 0.234713, 0.176002, 0.131127, 0.0895389, 0.0483376, 0.0310816, 0.0265393, 0.0212367, 0.0231714, 0.0216561, 0.0209686, 0.02235, 0.0219046, 0.0260849, 0.0282466, 0.0277654, 0.0265663, 0.0261335, 0.0223369, 0.0238635, 0.0265622, 0.0377577, 0.0639591, 0.133138, 0.280307, 0.401801, 0.493176
P3MP1M, 0.0413131, 0.0706984, 0.114862, 0.145223, 0.15116, 0.153897, 0.16836, 0.171436, 0.157718, 0.139598, 0.112539, 0.0912938, 0.0686746, 0.0446289, 0.0322162, 0.0291666, 0.0265097, 0.0192903, 0.0114855, 0.0142944, 0.089521, 0.283493, 0.457905, 0.539793, 0.569969, 0.585762, 0.590463, 0.59868, 0.602765, 0.604817, 0.610757, 0.615059, 0.616781, 0.622522, 0.620041, 0.6298, 0.630381, 0.633071, 0.640114, 0.63369, 0.642771
PEP1M, 0.0636188, 0.0768903, 0.098146, 0.143501, 0.195199, 0.212187, 0.228464, 0.210772, 0.164931, 0.118611, 0.0780624, 0.0571677, 0.0417033, 0.0289924, 0.0258524, 0.027508, 0.0228787, 0.0247634, 0.0192786, 0.0306447, 0.0698136, 0.181428, 0.378544, 0.5699, 0.680961, 0.73503, 0.756669, 0.771028, 0.778867, 0.777609, 0.779807, 0.782125, 0.780112, 0.785774, 0.784465, 0.78837, 0.79064, 0.790403, 0.795549, 0.795942, 0.792884
PKODXL5K, 0.184971, 0.243598, 0.263264, 0.297406, 0.312719, 0.27871, 0.244107, 0.213657, 0.185775, 0.195203, 0.241965, 0.281397, 0.283232, 0.26432, 0.241889, 0.224933, 0.211901, 0.207557, 0.206223, 0.218325, 0.237046, 0.238926, 0.233761, 0.218999, 0.198255, 0.178131, 0.159972, 0.149247, 0.140379, 0.136428, 0.140133, 0.149082, 0.16241, 0.187375, 0.214333, 0.254757, 0.29985, 0.352063, 0.41945, 0.470574, 0.528364
PLIWF4K, 0.195696, 0.216858, 0.24188, 0.271223, 0.294637, 0.300973, 0.307504, 0.311333, 0.310163, 0.316356, 0.315352, 0.317508, 0.31477, 0.31521, 0.318147, 0.312829, 0.314416, 0.312085, 0.307965, 0.305981, 0.308614, 0.30756, 0.308057, 0.308576, 0.310372, 0.310456, 0.311797, 0.314342, 0.313312, 0.314942, 0.314727, 0.317841, 0.317832, 0.322014, 0.319632, 0.324384, 0.324425, 0.326213, 0.330097, 0.326827, 0.328532
PXEROY1R, 0.041913, 0.0401002, 0.0413371, 0.0477198, 0.0474869, 0.0490467, 0.0624509, 0.0733532, 0.0867095, 0.118386, 0.182196, 0.304291, 0.472434, 0.615627, 0.680853, 0.693943, 0.700186, 0.702077, 0.699104, 0.697556, 0.712885, 0.72704, 0.739575, 0.750677, 0.753467, 0.759286, 0.756623, 0.758668, 0.758912, 0.757855, 0.756527, 0.758269, 0.760736, 0.761566, 0.75907, 0.76198, 0.762527, 0.763543, 0.765141, 0.764757, 0.76462
RM3MGRID, 0.00414761, 0.00414395, 0.0170528, 0.0295205, 0.02935, 0.0201181, 0.0252422, 0.0258739, 0.0216698, 0.0310218, 0.0293143, 0.0215562, 0.0216538, 0.0240357, 0.0209317, 0.0199629, 0.0268979, 0.0784938, 0.196033, 0.297392, 0.33706, 0.343749, 0.346901, 0.342914, 0.336352, 0.331438, 0.324973, 0.321777, 0.317538, 0.312665, 0.309051, 0.30735, 0.30419, 0.303019, 0.297956, 0.295033, 0.292227, 0.289963, 0.289305, 0.282188, 0.283629
PFUJI1Y, 0.0303996, 0.0332117, 0.0259658, 0.0284555, 0.0283378, 0.0200494, 0.0203129, 0.0215199, 0.0226827, 0.0274466, 0.0430029, 0.0736642, 0.136109, 0.237881, 0.381206, 0.515915, 0.607848, 0.662059, 0.678099, 0.685535, 0.69667, 0.692741, 0.694424, 0.69341, 0.692335, 0.696753, 0.701171, 0.713441, 0.724378, 0.73998, 0.766701, 0.79244, 0.818502, 0.839503, 0.846213, 0.855346, 0.858032, 0.860881, 0.863109, 0.863318, 0.862601
PHP8RV5C, 0.149399, 0.185216, 0.230329, 0.308715, 0.411042, 0.527278, 0.637574, 0.689383, 0.695288, 0.684391, 0.667403, 0.641571, 0.610386, 0.563416, 0.507139, 0.445506, 0.380956, 0.310043, 0.238365, 0.185586, 0.151973, 0.128887, 0.114091, 0.104022, 0.0931172, 0.0896138, 0.0906127, 0.102632, 0.112721, 0.119543, 0.137922, 0.19685, 0.28496, 0.373599, 0.445371, 0.515593, 0.570912, 0.618158, 0.663462, 0.686306, 0.711612
PLTOSF1C, 0.166041, 0.236523, 0.320796, 0.399934, 0.433488, 0.475586, 0.561934, 0.609772, 0.617606, 0.624938, 0.61043, 0.592436, 0.555561, 0.513446, 0.446141, 0.376973, 0.311634, 0.253824, 0.196468, 0.159384, 0.139705, 0.126418, 0.119647, 0.113555, 0.112736, 0.114686, 0.11919, 0.126342, 0.135452, 0.13885, 0.135486, 0.132521, 0.125523, 0.125467, 0.132475, 0.152812, 0.183766, 0.250916, 0.399349, 0.531222, 0.63027
PLTOSF1Y, 0.134162, 0.120691, 0.111442, 0.100165, 0.0968926, 0.0904013, 0.0963736, 0.101593, 0.104465, 0.111454, 0.130663, 0.178876, 0.294946, 0.475305, 0.606139, 0.659918, 0.692377, 0.708682, 0.716629, 0.720095, 0.728051, 0.726882, 0.728846, 0.732337, 0.733675, 0.735396, 0.735029, 0.741612, 0.744316, 0.750492, 0.752722, 0.754903, 0.758171, 0.762072, 0.757263, 0.765089, 0.767001, 0.764976, 0.768697, 0.765732, 0.768293
INCWHITE, 0.621563, 0.648844, 0.676171, 0.707914, 0.726755, 0.735594, 0.752088, 0.762524, 0.765361, 0.775266, 0.779227, 0.785866, 0.784668, 0.78522, 0.787034, 0.788079, 0.793274, 0.799338, 0.7979, 0.799205, 0.80657, 0.804914, 0.810314, 0.813105, 0.809871, 0.814325, 0.811346, 0.817048, 0.81822, 0.819465, 0.821776, 0.822664, 0.823322, 0.825066, 0.823324, 0.827439, 0.829065, 0.830201, 0.832788, 0.829777, 0.829104
RM3MUNI, 0.00590953, 0.00748317, 0.00913093, 0.00503354, 0.00322106, 0.0035628, 0.00731872, 0.0097334, 0.00541921, 0.00784767, 0.00824828, 0.0105776, 0.00765632, 0.00746219, 0.00701293, 0.00999689, 0.0152437, 0.0425975, 0.141755, 0.3257, 0.445867, 0.490688, 0.510614, 0.508597, 0.499601, 0.491495, 0.482297, 0.473866, 0.466206, 0.457861, 0.452032, 0.445187, 0.438543, 0.43277, 0.424747, 0.422734, 0.414414, 0.409472, 0.403421, 0.397604, 0.389685
PHP8RV1Y, 0.0609169, 0.0543226, 0.0541215, 0.0498969, 0.0521298, 0.0456883, 0.0501218, 0.0556447, 0.0560226, 0.0705334, 0.0893853, 0.126366, 0.203754, 0.362906, 0.548108, 0.65632, 0.700494, 0.708574, 0.698881, 0.697231, 0.720605, 0.750789, 0.786827, 0.809111, 0.81896, 0.825559, 0.821817, 0.827071, 0.825656, 0.824256, 0.825535, 0.826033, 0.827327, 0.829124, 0.827151, 0.830424, 0.831738, 0.829838, 0.833682, 0.830362, 0.831111
P3MP5Y, 0.0473882, 0.0897186, 0.154625, 0.205203, 0.218431, 0.215038, 0.221768, 0.233819, 0.240298, 0.251666, 0.273158, 0.339078, 0.47428, 0.605456, 0.685797, 0.723782, 0.742939, 0.75114, 0.752326, 0.753441, 0.763942, 0.766237, 0.768456, 0.768659, 0.768825, 0.77531, 0.772961, 0.776324, 0.780292, 0.782498, 0.782117, 0.783732, 0.785237, 0.790108, 0.785944, 0.790689, 0.792591, 0.793733, 0.796981, 0.792806, 0.799171
PKODXL1M, 0.170874, 0.211379, 0.201991, 0.189627, 0.161288, 0.110524, 0.0766565, 0.0482584, 0.0250525, 0.0203288, 0.0145807, 0.0111768, 0.00412073, 0.0021958, 0.000931902, 0.00259195, 0.000419559, 0.00305793, 0.0, 0.00428364, 0.0131809, 0.0350805, 0.088128, 0.168072, 0.259532, 0.335057, 0.383029, 0.408962, 0.422497, 0.432269, 0.440123, 0.455056, 0.474201, 0.501535, 0.52683, 0.565621, 0.60148, 0.639107, 0.681143, 0.709397, 0.737725
P3MP1Y, 0.0793635, 0.170456, 0.360599, 0.558514, 0.624141, 0.641441, 0.658819, 0.674303, 0.675912, 0.686147, 0.688974, 0.698244, 0.699645, 0.707429, 0.715039, 0.72012, 0.725936, 0.733395, 0.731271, 0.732541, 0.755702, 0.75535, 0.761861, 0.76325, 0.765228, 0.768263, 0.76773, 0.772167, 0.773762, 0.777222, 0.778847, 0.78262, 0.783961, 0.788651, 0.786749, 0.792061, 0.794252, 0.79544, 0.801139, 0.796028, 0.798362
PLTOSF1K, 0.0521328, 0.0475096, 0.051943, 0.053291, 0.0546063, 0.0563084, 0.0560615, 0.057976, 0.053776, 0.0574525, 0.0583315, 0.05951, 0.0583653, 0.0574651, 0.0558311, 0.0571201, 0.057108, 0.0573831, 0.0536078, 0.0571739, 0.0568974, 0.0554361, 0.0596553, 0.0607307, 0.0610333, 0.0621245, 0.0634085, 0.0639492, 0.0645509, 0.0648677, 0.0657606, 0.069759, 0.0691866, 0.0727766, 0.0724949, 0.0723044, 0.0743118, 0.0743759, 0.0764849, 0.0747995, 0.0777405
PHP8RV1M, 0.0806486, 0.0867233, 0.0901565, 0.10305, 0.11223, 0.11021, 0.118968, 0.125238, 0.115975, 0.107978, 0.0924897, 0.083487, 0.0716301, 0.0547712, 0.0455215, 0.0450136, 0.0448956, 0.042281, 0.0320388, 0.0350596, 0.0498427, 0.101675, 0.245194, 0.468237, 0.640054, 0.728149, 0.764941, 0.784533, 0.793478, 0.79823, 0.799797, 0.806136, 0.812614, 0.817746, 0.815006, 0.824389, 0.825609, 0.826276, 0.828611, 0.826845, 0.826796
PLTOSF5K, 0.100085, 0.101719, 0.100038, 0.107354, 0.110451, 0.10567, 0.113314, 0.113576, 0.112308, 0.115252, 0.116293, 0.11724, 0.116299, 0.115716, 0.112996, 0.113264, 0.113261, 0.112072, 0.108898, 0.111984, 0.109372, 0.108375, 0.11234, 0.114202, 0.115925, 0.116705, 0.117764, 0.120417, 0.121564, 0.124273, 0.125942, 0.130527, 0.131317, 0.137339, 0.137356, 0.14062, 0.141135, 0.143036, 0.146739, 0.145382, 0.149482
PLTOSF1M, 0.267516, 0.249327, 0.235335, 0.238185, 0.24236, 0.247545, 0.260656, 0.258379, 0.235826, 0.216139, 0.191471, 0.171144, 0.155895, 0.131018, 0.117012, 0.11034, 0.107791, 0.10324, 0.0900361, 0.0902736, 0.12243, 0.223913, 0.403661, 0.569832, 0.664035, 0.705757, 0.722483, 0.733915, 0.743363, 0.748453, 0.753199, 0.758887, 0.761236, 0.765069, 0.764116, 0.768662, 0.771603, 0.773655, 0.775762, 0.772752, 0.776119
PEP1Y, 0.0192452, 0.0151305, 0.0142736, 0.0184109, 0.0167618, 0.0137694, 0.0206314, 0.0252747, 0.029549, 0.0477841, 0.0773104, 0.125852, 0.195197, 0.294078, 0.403848, 0.511264, 0.600709, 0.665817, 0.700687, 0.726041, 0.743808, 0.752183, 0.760865, 0.761883, 0.762238, 0.769283, 0.772062, 0.776932, 0.781492, 0.782505, 0.782291, 0.780932, 0.781711, 0.785388, 0.781806, 0.788403, 0.790592, 0.790692, 0.794904, 0.791183, 0.797417
P3MP5K, 0.0375429, 0.0739547, 0.134272, 0.187899, 0.200713, 0.201894, 0.210237, 0.213339, 0.213364, 0.215293, 0.217039, 0.220946, 0.220497, 0.217879, 0.216933, 0.220559, 0.218276, 0.219444, 0.215923, 0.218213, 0.218325, 0.217716, 0.221796, 0.219148, 0.221191, 0.223657, 0.224532, 0.22692, 0.228433, 0.228155, 0.228197, 0.228579, 0.229442, 0.232026, 0.231616, 0.235579, 0.238027, 0.241141, 0.244136, 0.243417, 0.247233
P3MP5M, 0.0590662, 0.115994, 0.210263, 0.289605, 0.314602, 0.319133, 0.332993, 0.339852, 0.331753, 0.316906, 0.292647, 0.272705, 0.247103, 0.228409, 0.210843, 0.207256, 0.204729, 0.197866, 0.182755, 0.190619, 0.277387, 0.452681, 0.586975, 0.644756, 0.663728, 0.676053, 0.677964, 0.685118, 0.687487, 0.689275, 0.691643, 0.695489, 0.695582, 0.702202, 0.701481, 0.70586, 0.707421, 0.709749, 0.713427, 0.708134, 0.714806
PHP8RV1C, 0.102915, 0.132883, 0.165942, 0.202418, 0.275308, 0.396592, 0.532378, 0.604058, 0.612155, 0.607689, 0.570269, 0.530204, 0.483694, 0.424507, 0.356309, 0.289379, 0.22951, 0.171349, 0.117897, 0.0835637, 0.0657542, 0.0548956, 0.0492554, 0.0431444, 0.0408609, 0.0396258, 0.039736, 0.046203, 0.0506253, 0.0547165, 0.0645281, 0.0999472, 0.15801, 0.230415, 0.296547, 0.367921, 0.431461, 0.489934, 0.548289, 0.586319, 0.620496
PLIWF1K, 0.0244026, 0.021455, 0.0218541, 0.0259194, 0.0286439, 0.0267449, 0.0273123, 0.0320981, 0.0278673, 0.0298897, 0.0311391, 0.0298108, 0.0298823, 0.0296236, 0.0271146, 0.0284612, 0.0274281, 0.0290341, 0.022401, 0.0255069, 0.027121, 0.0269112, 0.0296503, 0.0275189, 0.0308803, 0.0298067, 0.0314203, 0.0336692, 0.0332437, 0.0348489, 0.0364884, 0.0399914, 0.0418657, 0.0430728, 0.0439787, 0.0473763, 0.0476181, 0.0495633, 0.0523644, 0.0507658, 0.0542725
PLAGREE, 0.0161742, 0.02231, 0.0435391, 0.0588787, 0.0691471, 0.076832, 0.095732, 0.113387, 0.140511, 0.173169, 0.204486, 0.260793, 0.340426, 0.385805, 0.382701, 0.348301, 0.303889, 0.248447, 0.182155, 0.130507, 0.117661, 0.0903617, 0.0738334, 0.0666862, 0.0648954, 0.0640078, 0.064007, 0.0648028, 0.0675601, 0.0726855, 0.0785677, 0.085835, 0.087649, 0.0877714, 0.0869052, 0.0943441, 0.113423, 0.14976, 0.202097, 0.22581, 0.239526
P3MP1YB, 0.0176937, 0.0279808, 0.0386854, 0.043031, 0.0430095, 0.0411436, 0.0469748, 0.0526914, 0.0577099, 0.0690606, 0.0873314, 0.158621, 0.315746, 0.497983, 0.621403, 0.686346, 0.713021, 0.725266, 0.72901, 0.73053, 0.74063, 0.740584, 0.746069, 0.750971, 0.748273, 0.753769, 0.75228, 0.758076, 0.758537, 0.762639, 0.763165, 0.76549, 0.765363, 0.771307, 0.767639, 0.774377, 0.77611, 0.776539, 0.780716, 0.775942, 0.784102
PLAWH1, 0.107418, 0.21193, 0.42413, 0.597905, 0.630874, 0.625263, 0.626891, 0.624456, 0.615489, 0.615117, 0.610107, 0.607852, 0.600145, 0.596751, 0.591171, 0.586707, 0.583814, 0.578468, 0.573454, 0.568267, 0.569612, 0.564043, 0.561784, 0.556568, 0.554015, 0.548525, 0.544323, 0.542625, 0.539924, 0.534634, 0.530236, 0.527567, 0.52277, 0.524343, 0.516223, 0.515809, 0.512038, 0.50991, 0.508855, 0.502042, 0.501154
P3MP5C, 0.0545505, 0.127441, 0.283333, 0.45121, 0.523706, 0.555362, 0.598694, 0.625546, 0.640138, 0.649065, 0.647067, 0.646261, 0.634429, 0.609275, 0.573524, 0.518532, 0.459423, 0.392105, 0.322181, 0.275193, 0.258429, 0.247448, 0.239587, 0.234374, 0.235163, 0.243429, 0.253737, 0.268214, 0.285381, 0.288838, 0.279512, 0.271031, 0.259673, 0.259593, 0.273894, 0.309088, 0.373015, 0.480678, 0.597984, 0.652529, 0.698757
PKODXL1Y, 0.172056, 0.141651, 0.07489, 0.0276349, 0.00928472, 0.0, 0.0, 0.00276117, 0.00034885, 0.000744435, 0.00349225, 0.0206147, 0.0696635, 0.139566, 0.217006, 0.293081, 0.36758, 0.441725, 0.507975, 0.573169, 0.640569, 0.688851, 0.732417, 0.763516, 0.783259, 0.79654, 0.807839, 0.818905, 0.826478, 0.832579, 0.836456, 0.837779, 0.840858, 0.846086, 0.847698, 0.853249, 0.857209, 0.858624, 0.864732, 0.864428, 0.863681
PKODXL1K, 0.0233289, 0.0257319, 0.0242258, 0.020386, 0.0086717, 0.0013298, 0.00519334, 0.00314785, 0.000182938, 0.00242833, 0.00387375, 0.00512216, 0.00378526, 0.00299677, 0.00121384, 0.00276701, 0.00145267, 0.00223364, 0.0, 0.00101268, 0.00291023, 0.00431063, 0.00579058, 0.00423755, 0.00326502, 0.00266827, 0.00350842, 0.000892976, 0.00217102, 0.000442176, 0.000993783, 0.00272694, 0.00221316, 0.00483622, 0.00532822, 0.00760983, 0.0147916, 0.0295336, 0.0603382, 0.0917756, 0.139894
PFUJI1K, 0.00840843, 0.0115086, 0.011509, 0.0135685, 0.0139081, 0.00585786, 0.00838748, 0.00941175, 0.00609071, 0.00784723, 0.0109284, 0.010653, 0.00989271, 0.0086794, 0.00416167, 0.00600733, 0.00286333, 0.00410829, 0.0014035, 0.00225586, 0.00466068, 0.00538613, 0.00844501, 0.00657823, 0.00469152, 0.00377861, 0.00400998, 0.00472904, 0.00485104, 0.00646948, 0.014826, 0.0395905, 0.0926225, 0.187346, 0.298934, 0.426516, 0.539718, 0.634543, 0.7145, 0.76038, 0.794025
PEP1K, 0.0150062, 0.0108524, 0.0125484, 0.0125607, 0.0113642, 0.0101486, 0.0127123, 0.0141776, 0.0115668, 0.0142285, 0.0137175, 0.0169733, 0.0144145, 0.013313, 0.011936, 0.0132985, 0.0133986, 0.0142333, 0.0109276, 0.0106183, 0.0112184, 0.0119205, 0.0132582, 0.0141315, 0.0126596, 0.0148871, 0.0157537, 0.0176465, 0.0214564, 0.026652, 0.038902, 0.0610539, 0.100009, 0.159342, 0.231371, 0.320615, 0.409124, 0.488551, 0.564603, 0.609756, 0.645937
PLAWH2, 0.099119, 0.193126, 0.398584, 0.607083, 0.656291, 0.65887, 0.662478, 0.660424, 0.650354, 0.651498, 0.644069, 0.643872, 0.636056, 0.635425, 0.630627, 0.625257, 0.620752, 0.623399, 0.615365, 0.609151, 0.612052, 0.605487, 0.603754, 0.598684, 0.596167, 0.593138, 0.587031, 0.585481, 0.581812, 0.575482, 0.573448, 0.570549, 0.567721, 0.565402, 0.557837, 0.558376, 0.556571, 0.551654, 0.550342, 0.54542, 0.543923
PLTOSF5Y, 0.255182, 0.241726, 0.229437, 0.219246, 0.214975, 0.206396, 0.211143, 0.217785, 0.219755, 0.231824, 0.251968, 0.306026, 0.422634, 0.570741, 0.655224, 0.685706, 0.704127, 0.715043, 0.715977, 0.711131, 0.723761, 0.730347, 0.73523, 0.736475, 0.734931, 0.738319, 0.737675, 0.743335, 0.747335, 0.752088, 0.754673, 0.759129, 0.759409, 0.762953, 0.761577, 0.765602, 0.767393, 0.769492, 0.773794, 0.771091, 0.773268
PLTOSF5C, 0.263499, 0.332858, 0.405456, 0.471764, 0.499553, 0.535704, 0.598595, 0.630902, 0.63881, 0.645043, 0.640211, 0.625174, 0.603201, 0.564442, 0.516399, 0.46, 0.407163, 0.355304, 0.303113, 0.266602, 0.247369, 0.235624, 0.226566, 0.21968, 0.216936, 0.218297, 0.221755, 0.230615, 0.240758, 0.244506, 0.241933, 0.23762, 0.229389, 0.228487, 0.234151, 0.254976, 0.286794, 0.351066, 0.484118, 0.588878, 0.664502
PHP8RV1K, 0.0413543, 0.0416085, 0.0460843, 0.0493924, 0.0515733, 0.0496314, 0.0588491, 0.0596304, 0.0584043, 0.0609979, 0.0622133, 0.0664332, 0.0666295, 0.0635149, 0.0606256, 0.057332, 0.0557193, 0.0501608, 0.0406808, 0.0410356, 0.0434167, 0.0477982, 0.0528166, 0.0522722, 0.0489098, 0.0477646, 0.046947, 0.0511406, 0.0539796, 0.0561707, 0.0601867, 0.0769625, 0.099083, 0.1222, 0.138508, 0.152022, 0.162883, 0.171216, 0.178664, 0.1798, 0.188308
P3MPWH, 0.0854692, 0.177447, 0.37274, 0.578569, 0.656446, 0.666122, 0.692146, 0.707153, 0.710551, 0.721943, 0.725501, 0.732628, 0.733666, 0.741304, 0.749273, 0.753782, 0.762758, 0.766907, 0.767457, 0.767947, 0.782898, 0.780049, 0.787693, 0.785957, 0.787106, 0.789545, 0.790826, 0.794635, 0.79428, 0.797002, 0.799219, 0.801429, 0.801856, 0.805366, 0.80234, 0.808159, 0.811266, 0.808726, 0.816103, 0.81072, 0.812352
P3MP1C, 0.0284833, 0.0844542, 0.212059, 0.356186, 0.42093, 0.461676, 0.51954, 0.563467, 0.572808, 0.582147, 0.580942, 0.57119, 0.546467, 0.506588, 0.452592, 0.373778, 0.29383, 0.207811, 0.128893, 0.0828278, 0.0621757, 0.05194, 0.045816, 0.0410555, 0.0435767, 0.04697, 0.0573492, 0.0703567, 0.0849799, 0.0897867, 0.0819388, 0.0731256, 0.0642953, 0.0623628, 0.0733246, 0.112689, 0.172789, 0.298193, 0.467749, 0.540407, 0.594034
PXEROK1R, 0.0185403, 0.0184022, 0.022708, 0.0234442, 0.0262102, 0.0231103, 0.0315273, 0.0364689, 0.0359273, 0.0435169, 0.0508677, 0.0639483, 0.0704485, 0.0685941, 0.0554369, 0.0416246, 0.0338339, 0.0302544, 0.0211244, 0.0201733, 0.0248791, 0.0337866, 0.0480599, 0.054304, 0.0583924, 0.0609817, 0.0628372, 0.0654478, 0.0694269, 0.0702135, 0.0682273, 0.0681611, 0.0645723, 0.0647454, 0.0692403, 0.077652, 0.0980496, 0.143515, 0.223929, 0.276351, 0.312423
PLTOSF5M, 0.376568, 0.360833, 0.352154, 0.358389, 0.363996, 0.367363, 0.381717, 0.379653, 0.361371, 0.342228, 0.320065, 0.301587, 0.281056, 0.258054, 0.243902, 0.233234, 0.229358, 0.223427, 0.209215, 0.202971, 0.239402, 0.343412, 0.497173, 0.621717, 0.683007, 0.710874, 0.719356, 0.732457, 0.740392, 0.746349, 0.751496, 0.755328, 0.755939, 0.760672, 0.758589, 0.766052, 0.773731, 0.773521, 0.779289, 0.775719, 0.779296
